{
  "name": "City",
  "plural": "cities",
  "base": "PersistedModel",
  "idInjection": true,
  "properties": {
    "id": {
      "type": {
        "generated": true,
        "id": true
      }
    },
    "code": {
      "type": "string",
      "required": true
    },
    "state": {
      "type": "State",
      "required": true
    },
    "name": {
      "type": "string",
      "required": true
    },
    "isUrban": {
      "type": "boolean",
      "required": true
    },
    "touristAttraction": {
      "type": "string"
    },
    "localFestivals": {
      "type": "string"
    },
    "specialityFood": {
      "type": "string"
    },
    "addedOn": {
      "type": "date",
      "required": true
    },
    "updatedOn": {
      "type": "date",
      "required": true
    }
  },
  "validations": [],
  "relations": {},
  "acls": [],
  "methods": []
}
