{
  "name": "Customer",
  "plural": "customers",
  "base": "PersistedModel",
  "idInjection": true,
  "properties": {
    "id": {
      "type": {
        "generated": true,
        "id": true
      }
    },
    "code": {
      "type": "string"
    },
    "name": {
      "type": "string",
      "required": true
    },
    "age": {
      "type": "number"
    },
    "sex": {
      "type": "string"
    },
    "email": {
      "type": "string",
      "required": true
    },
    "phone": {
      "type": "number"
    },
    "address": {
      "type": "string"
    },
    "city": {
      "type": "City"
    },
    "state": {
      "type": "State"
    },
    "pinCode": {
      "type": "number"
    },
    "addedOn": {
      "type": "date",
      "required": true
    },
    "updatedOn": {
      "type": "date",
      "required": true
    },
    "loginType": {
      "type": "string",
      "required": true
    }
  },
  "validations": [],
  "relations": {
    "trips": {
      "type": "hasMany",
      "model": "trip",
      "foreignKey": "customerId"
    }
  },
  "acls": [],
  "methods": []
}
